{
  "fow": 60.0,
  "translateSmooth": 0.89,
  "translateSpeed": 1.0,
  "translateTopSpeed": 100.0,
  "translateBoostSpeed": 4.0,
  "translateSlowSpeed": 0.1,
  "default": {
    "position": {
      "x": 61.0,
      "y": 200.0,
      "z": 176.0
    },
    "rotate": {
      "pitch": 0.0,
      "yaw": 25.0
    }
  }
}