{
  "viewBox": {
    "width": 1366,
    "height": 768,
    "maxDeep": 100000.0,
    "minDeep": 0.1
  },
  "screenClearColor": {
    "R": 51,
    "G": 76,
    "B": 76,
    "A": 255
  },
  "freqencyOfSystemUpdates": 120,
  "freqencyOfConsoleUpdates": 1
} 
