# Blender v3.0.1 OBJ File: ''
# www.blender.org
o Cube1_Cube
v 50.000000 50.000000 100.000000
v 50.000000 -50.000000 50.000000
v 50.000000 50.000000 150.000000
v 50.000000 -50.000000 150.000000
v -50.000000 50.000000 100.000000
v -50.000000 -50.000000 50.000000
v -50.000000 50.000000 150.000000
v -50.000000 -50.000000 150.000000
vt 0.875000 0.500000
vt 0.625000 0.750000
vt 0.625000 0.500000
vt 0.375000 1.000000
vt 0.375000 0.750000
vt 0.375000 0.000000
vt 0.625000 0.250000
vt 0.375000 0.250000
vt 0.375000 0.500000
vt 0.125000 0.750000
vt 0.125000 0.500000
vt 0.875000 0.750000
vt 0.625000 1.000000
vt 0.625000 0.000000
vn 0.0000 1.0000 0.0000
vn 0.0000 0.0000 1.0000
vn -1.0000 0.0000 0.0000
vn 0.0000 -1.0000 0.0000
vn 1.0000 0.0000 0.0000
vn 0.0000 0.4472 -0.8944
s off
f 5/1/1 3/2/1 1/3/1
f 3/2/2 8/4/2 4/5/2
f 8/6/3 5/7/3 6/8/3
f 2/9/4 8/10/4 6/11/4
f 1/3/5 4/5/5 2/9/5
f 5/7/6 2/9/6 6/8/6
f 5/1/1 7/12/1 3/2/1
f 3/2/2 7/13/2 8/4/2
f 8/6/3 7/14/3 5/7/3
f 2/9/4 4/5/4 8/10/4
f 1/3/5 3/2/5 4/5/5
f 5/7/6 1/3/6 2/9/6
o Cube2_Cube.001
v 50.000000 50.000000 -150.000000
v 50.000000 -50.000000 -150.000000
v 50.000000 50.000000 -100.000000
v 50.000000 -50.000000 -50.000000
v -50.000000 50.000000 -150.000000
v -50.000000 -50.000000 -150.000000
v -50.000000 50.000000 -100.000000
v -50.000000 -50.000000 -50.000000
vt 0.875000 0.500000
vt 0.625000 0.750000
vt 0.625000 0.500000
vt 0.375000 1.000000
vt 0.375000 0.750000
vt 0.625000 0.000000
vt 0.375000 0.250000
vt 0.375000 0.000000
vt 0.375000 0.500000
vt 0.125000 0.750000
vt 0.125000 0.500000
vt 0.625000 0.250000
vt 0.875000 0.750000
vt 0.625000 1.000000
vn 0.0000 1.0000 0.0000
vn 0.0000 0.4472 0.8944
vn -1.0000 0.0000 0.0000
vn 0.0000 -1.0000 0.0000
vn 1.0000 0.0000 0.0000
vn 0.0000 0.0000 -1.0000
s off
f 13/15/7 11/16/7 9/17/7
f 11/16/8 16/18/8 12/19/8
f 15/20/9 14/21/9 16/22/9
f 10/23/10 16/24/10 14/25/10
f 10/23/11 11/16/11 12/19/11
f 13/26/12 10/23/12 14/21/12
f 13/15/7 15/27/7 11/16/7
f 11/16/8 15/28/8 16/18/8
f 15/20/9 13/26/9 14/21/9
f 10/23/10 12/19/10 16/24/10
f 10/23/11 9/17/11 11/16/11
f 13/26/12 9/17/12 10/23/12
o Cube2.001_Cube.002
v -98.408035 50.000000 -50.000000
v -98.408035 -50.000000 -50.000000
v -98.408035 50.000000 0.000000
v -98.408035 -50.000000 50.000000
v -198.408035 50.000000 -50.000000
v -198.408035 -50.000000 -50.000000
v -198.408035 50.000000 0.000000
v -198.408035 -50.000000 50.000000
vt 0.875000 0.500000
vt 0.625000 0.750000
vt 0.625000 0.500000
vt 0.375000 1.000000
vt 0.375000 0.750000
vt 0.625000 0.000000
vt 0.375000 0.250000
vt 0.375000 0.000000
vt 0.375000 0.500000
vt 0.125000 0.750000
vt 0.125000 0.500000
vt 0.625000 0.250000
vt 0.875000 0.750000
vt 0.625000 1.000000
vn 0.0000 1.0000 0.0000
vn 0.0000 0.4472 0.8944
vn -1.0000 0.0000 0.0000
vn 0.0000 -1.0000 0.0000
vn 1.0000 0.0000 0.0000
vn 0.0000 0.0000 -1.0000
s off
f 21/29/13 19/30/13 17/31/13
f 19/30/14 24/32/14 20/33/14
f 23/34/15 22/35/15 24/36/15
f 18/37/16 24/38/16 22/39/16
f 18/37/17 19/30/17 20/33/17
f 21/40/18 18/37/18 22/35/18
f 21/29/13 23/41/13 19/30/13
f 19/30/14 23/42/14 24/32/14
f 23/34/15 21/40/15 22/35/15
f 18/37/16 20/33/16 24/38/16
f 18/37/17 17/31/17 19/30/17
f 21/40/18 17/31/18 18/37/18
